sim/ghdl/riscv/riscv_tb.vcd
$date
  Sun May 29 15:32:36 2022
$end
$version
  GHDL v0
$end
$timescale
  1 fs
$end
$scope module standard $end
$upscope $end
$scope module std_logic_1164 $end
$upscope $end
$scope module numeric_std $end
$upscope $end
$scope module constants $end
$upscope $end
$scope module riscv_tb $end
$var reg 1 ! clock $end
$var reg 1 " reset $end
$scope module dut $end
$var reg 1 # clock $end
$var reg 1 $ reset $end
$var reg 10 % iaddr_pc_imem[9:0] $end
$var reg 32 & instruction_imem_decode[31:0] $end
$var reg 3 ' funct_decode_alu[2:0] $end
$var reg 1 ( destwren_decode_alu $end
$var reg 5 ) destregno_decode_alu[4:0] $end
$var reg 5 * srcregno1_decode_registerset[4:0] $end
$var reg 5 + srcregno2_decode_registerset[4:0] $end
$var reg 32 , rddata1_registerset_alu[31:0] $end
$var reg 32 - data_alu_registerset[31:0] $end
$var reg 5 . wrregno_alu_registerset[4:0] $end
$var reg 1 / wren_alu_registerset $end
$var reg 1 0 selsrc2_decode_mux $end
$var reg 32 1 imm_decode_mux[31:0] $end
$var reg 32 2 rddata2_registerset_mux[31:0] $end
$var reg 1 3 aux_decode_alu $end
$var reg 32 4 data2_mux_alu[31:0] $end
$scope module pc $end
$var reg 1 5 clock $end
$var reg 1 6 reset $end
$var reg 10 7 o[9:0] $end
$upscope $end
$scope module imem $end
$var reg 10 8 address[9:0] $end
$var reg 1 9 clock $end
$var reg 32 : q[31:0] $end
$comment mem is not handled $end
$upscope $end
$scope module decode $end
$var reg 32 ; inst[31:0] $end
$var reg 3 < funct[2:0] $end
$var reg 5 = srcregno1[4:0] $end
$var reg 5 > srcregno2[4:0] $end
$var reg 1 ? destwren $end
$var reg 5 @ destregno[4:0] $end
$var reg 1 A aux $end
$var reg 32 B imm[31:0] $end
$var reg 1 C selsrc2 $end
$upscope $end
$scope module alu $end
$var reg 32 D a[31:0] $end
$var reg 32 E b[31:0] $end
$var reg 3 F funct[2:0] $end
$var reg 1 G aux $end
$var reg 5 H destregnoi[4:0] $end
$var reg 1 I destwreni $end
$var reg 32 J x[31:0] $end
$var reg 5 K destregnoo[4:0] $end
$var reg 1 L destwreno $end
$upscope $end
$scope module register_set $end
$var reg 5 M rdregno1[4:0] $end
$var reg 5 N rdregno2[4:0] $end
$var reg 1 O wren $end
$var reg 5 P wrregno[4:0] $end
$var reg 32 Q wrdata[31:0] $end
$var reg 32 R rddata1[31:0] $end
$var reg 32 S rddata2[31:0] $end
$var reg 1 T clock $end
$var reg 1 U reset $end
$comment registers is not handled $end
$upscope $end
$scope module mux $end
$var reg 32 V in1[31:0] $end
$var reg 32 W in2[31:0] $end
$var reg 32 X o[31:0] $end
$var reg 1 Y sel $end
$upscope $end
$upscope $end
$upscope $end
$enddefinitions $end
#0
1!
0"
1#
0$
b0000000000 %
bUUUUUUUUUUUUUUUUUUUUUUUUUUUUUUUU &
bUUU '
U(
bUUUUU )
bUUUUU *
bUUUUU +
b00000000000000000000000000000000 ,
bUUUUUUUUUUUUUUUUUUUUUUUUUUUUUUUU -
bUUUUU .
U/
U0
bUUUUUUUUUUUUUUUUUUUUUUUUUUUUUUUU 1
b00000000000000000000000000000000 2
U3
bUUUUUUUUUUUUUUUUUUUUUUUUUUUUUUUU 4
15
06
b0000000000 7
b0000000000 8
19
bUUUUUUUUUUUUUUUUUUUUUUUUUUUUUUUU :
bUUUUUUUUUUUUUUUUUUUUUUUUUUUUUUUU ;
bUUU <
bUUUUU =
bUUUUU >
U?
bUUUUU @
UA
bUUUUUUUUUUUUUUUUUUUUUUUUUUUUUUUU B
UC
b00000000000000000000000000000000 D
bUUUUUUUUUUUUUUUUUUUUUUUUUUUUUUUU E
bUUU F
UG
bUUUUU H
UI
bUUUUUUUUUUUUUUUUUUUUUUUUUUUUUUUU J
bUUUUU K
UL
bUUUUU M
bUUUUU N
UO
bUUUUU P
bUUUUUUUUUUUUUUUUUUUUUUUUUUUUUUUU Q
b00000000000000000000000000000000 R
b00000000000000000000000000000000 S
1T
0U
bUUUUUUUUUUUUUUUUUUUUUUUUUUUUUUUU V
b00000000000000000000000000000000 W
bUUUUUUUUUUUUUUUUUUUUUUUUUUUUUUUU X
UY
#5000000
0!
0#
05
09
0T
#10000000
1!
1"
1#
1$
b0000000001 %
b00000000110000000000000100010011 &
b000 '
1(
b00010 )
b00000 *
b01100 +
b00000000000000000000000000001100 -
b00010 .
1/
00
b00000000000000000000000000001100 1
03
b00000000000000000000000000001100 4
15
16
b0000000001 7
b0000000001 8
19
b00000000110000000000000100010011 :
b00000000110000000000000100010011 ;
b000 <
b00000 =
b01100 >
1?
b00010 @
0A
b00000000000000000000000000001100 B
0C
b00000000000000000000000000001100 E
b000 F
0G
b00010 H
1I
b00000000000000000000000000001100 J
b00010 K
1L
b00000 M
b01100 N
1O
b00010 P
b00000000000000000000000000001100 Q
1T
1U
b00000000000000000000000000001100 V
b00000000000000000000000000001100 X
0Y
#15000000
0!
0#
05
09
0T
#20000000
1!
1#
b0000000010 %
b00000000101100000000010110010011 &
b01011 )
b01011 +
b00000000000000000000000000001011 -
b01011 .
b00000000000000000000000000001011 1
b00000000000000000000000000001011 4
15
b0000000010 7
b0000000010 8
19
b00000000101100000000010110010011 :
b00000000101100000000010110010011 ;
b01011 >
b01011 @
0A
b00000000000000000000000000001011 B
b00000000000000000000000000001011 E
b01011 H
b00000000000000000000000000001011 J
b01011 K
b01011 N
b01011 P
b00000000000000000000000000001011 Q
1T
b00000000000000000000000000001011 V
b00000000000000000000000000001011 X
#25000000
0!
0#
05
09
0T
#30000000
1!
1#
b0000000011 %
b01000000101100010000000100110011 &
b00010 )
b00010 *
b00000000000000000000000000001100 ,
b00000000000000000000000000000001 -
b00010 .
10
b00000000000000000000010000001011 1
b00000000000000000000000000001011 2
X3
15
b0000000011 7
b0000000011 8
19
b01000000101100010000000100110011 :
b01000000101100010000000100110011 ;
b00010 =
b00010 @
XA
b00000000000000000000010000001011 B
1C
b00000000000000000000000000001100 D
XG
b00010 H
b00000000000000000000000000000001 J
b00010 K
b00010 M
b00010 P
b00000000000000000000000000000001 Q
b00000000000000000000000000001100 R
b00000000000000000000000000001011 S
1T
b00000000000000000000010000001011 V
b00000000000000000000000000001011 W
1Y
#35000000
0!
0#
05
09
0T
#40000000
1!
1#
b0000000100 %
b01111110010100000000001000010011 &
b00100 )
b00000 *
b00101 +
b00000000000000000000000000000000 ,
b11111111111111111111100000011011 -
b00100 .
00
b00000000000000000000011111100101 1
b00000000000000000000000000000000 2
b00000000000000000000011111100101 4
15
b0000000100 7
b0000000100 8
19
b01111110010100000000001000010011 :
b01111110010100000000001000010011 ;
b00000 =
b00101 >
b00100 @
XA
b00000000000000000000011111100101 B
0C
b00000000000000000000000000000000 D
b00000000000000000000011111100101 E
b00100 H
b11111111111111111111100000011011 J
b00100 K
b00000 M
b00101 N
b00100 P
b11111111111111111111100000011011 Q
b00000000000000000000000000000000 R
b00000000000000000000000000000000 S
1T
b00000000000000000000011111100101 V
b00000000000000000000000000000000 W
b00000000000000000000011111100101 X
0Y
#45000000
0!
0#
05
09
0T
#50000000
1!
1#
b0000000101 %
b01111100110000000000010100010011 &
b01010 )
b01100 +
b11111111111111111111100000110100 -
b01010 .
b00000000000000000000011111001100 1
b00000000000000000000011111001100 4
15
b0000000101 7
b0000000101 8
19
b01111100110000000000010100010011 :
b01111100110000000000010100010011 ;
b01100 >
b01010 @
XA
b00000000000000000000011111001100 B
b00000000000000000000011111001100 E
b01010 H
b11111111111111111111100000110100 J
b01010 K
b01100 N
b01010 P
b11111111111111111111100000110100 Q
1T
b00000000000000000000011111001100 V
b00000000000000000000011111001100 X
#55000000
0!
0#
05
09
0T
#60000000
1!
1#
b0000000110 %
b01000000101000100000001100110011 &
b00110 )
b00100 *
b01010 +
b11111111111111111111100000011011 ,
b11111111111111111111111111100111 -
b00110 .
10
b00000000000000000000010000001010 1
b11111111111111111111100000110100 2
b11111111111111111111100000110100 4
15
b0000000110 7
b0000000110 8
19
b01000000101000100000001100110011 :
b01000000101000100000001100110011 ;
b00100 =
b01010 >
b00110 @
b00000000000000000000010000001010 B
1C
b11111111111111111111100000011011 D
b11111111111111111111100000110100 E
b00110 H
b11111111111111111111111111100111 J
b00110 K
b00100 M
b01010 N
b00110 P
b11111111111111111111111111100111 Q
b11111111111111111111100000011011 R
b11111111111111111111100000110100 S
1T
b00000000000000000000010000001010 V
b11111111111111111111100000110100 W
b11111111111111111111100000110100 X
1Y
#65000000
0!
0#
05
09
0T
#70000000
1!
1#
b0000000111 %
b00000000000100110001001110010011 &
b001 '
b00111 )
b00110 *
b00001 +
b11111111111111111111111111100111 ,
b11111111111111111111111111001110 -
b00111 .
00
b00000000000000000000000000000001 1
b00000000000000000000000000000001 2
03
b00000000000000000000000000000001 4
15
b0000000111 7
b0000000111 8
19
b00000000000100110001001110010011 :
b00000000000100110001001110010011 ;
b001 <
b00110 =
b00001 >
b00111 @
0A
b00000000000000000000000000000001 B
0C
b11111111111111111111111111100111 D
b00000000000000000000000000000001 E
b001 F
0G
b00111 H
b11111111111111111111111111001110 J
b00111 K
b00110 M
b00001 N
b00111 P
b11111111111111111111111111001110 Q
b11111111111111111111111111100111 R
b00000000000000000000000000000001 S
1T
b00000000000000000000000000000001 V
b00000000000000000000000000000001 W
b00000000000000000000000000000001 X
0Y
#75000000
0!
0#
05
09
0T
#80000000
1!
1#
b0000001000 %
b00000000001000110001001100010011 &
b00110 )
b00010 +
b11111111111111111111111110011100 -
b00110 .
b00000000000000000000000000000010 1
b00000000000000000000000000000010 4
15
b0000001000 7
b0000001000 8
19
b00000000001000110001001100010011 :
b00000000001000110001001100010011 ;
b00010 >
b00110 @
b00000000000000000000000000000010 B
b00000000000000000000000000000010 E
b00110 H
b11111111111111111111111110011100 J
b00110 K
b00010 N
b00110 P
b11111111111111111111111110011100 Q
1T
b00000000000000000000000000000010 V
b00000000000000000000000000000010 X
#85000000
0!
0#
05
09
0T
#90000000
1!
1#
b0000001001 %
b00000000011100110000001100110011 &
b000 '
b00111 +
b11111111111111111111111110011100 ,
b11111111111111111111111101101010 -
10
b00000000000000000000000000000111 1
b11111111111111111111111111001110 2
b11111111111111111111111111001110 4
15
b0000001001 7
b0000001001 8
19
b00000000011100110000001100110011 :
b00000000011100110000001100110011 ;
b000 <
b00111 >
b00000000000000000000000000000111 B
1C
b11111111111111111111111110011100 D
b11111111111111111111111111001110 E
b000 F
b11111111111111111111111101101010 J
b00111 N
b11111111111111111111111101101010 Q
b11111111111111111111111110011100 R
b11111111111111111111111111001110 S
1T
b00000000000000000000000000000111 V
b11111111111111111111111111001110 W
b11111111111111111111111111001110 X
1Y
#95000000
0!
0#
05
09
0T
#100000000
1!
1#
b0000001010 %
b00000000000100110001001100010011 &
b001 '
b00001 +
b11111111111111111111111101101010 ,
b11111111111111111111111011010100 -
00
b00000000000000000000000000000001 1
b00000000000000000000000000000001 2
b00000000000000000000000000000001 4
15
b0000001010 7
b0000001010 8
19
b00000000000100110001001100010011 :
b00000000000100110001001100010011 ;
b001 <
b00001 >
b00000000000000000000000000000001 B
0C
b11111111111111111111111101101010 D
b00000000000000000000000000000001 E
b001 F
b11111111111111111111111011010100 J
b00001 N
b11111111111111111111111011010100 Q
b11111111111111111111111101101010 R
b00000000000000000000000000000001 S
1T
b00000000000000000000000000000001 V
b00000000000000000000000000000001 W
b00000000000000000000000000000001 X
0Y
#105000000
0!
0#
05
09
0T
#110000000
1!
1#
b0000001011 %
b00000000010100110000001100010011 &
b000 '
b00101 +
b11111111111111111111111011010100 ,
b11111111111111111111111011011001 -
b00000000000000000000000000000101 1
b00000000000000000000000000000000 2
b00000000000000000000000000000101 4
15
b0000001011 7
b0000001011 8
19
b00000000010100110000001100010011 :
b00000000010100110000001100010011 ;
b000 <
b00101 >
0A
b00000000000000000000000000000101 B
b11111111111111111111111011010100 D
b00000000000000000000000000000101 E
b000 F
b11111111111111111111111011011001 J
b00101 N
b11111111111111111111111011011001 Q
b11111111111111111111111011010100 R
b00000000000000000000000000000000 S
1T
b00000000000000000000000000000101 V
b00000000000000000000000000000000 W
b00000000000000000000000000000101 X
#115000000
0!
0#
05
09
0T
#120000000
1!
1#
b0000001100 %
b00000000011000010000000100110011 &
b00010 )
b00010 *
b00110 +
b00000000000000000000000000000001 ,
b11111111111111111111111011011010 -
b00010 .
10
b00000000000000000000000000000110 1
b11111111111111111111111011011001 2
b11111111111111111111111011011001 4
15
b0000001100 7
b0000001100 8
19
b00000000011000010000000100110011 :
b00000000011000010000000100110011 ;
b00010 =
b00110 >
b00010 @
b00000000000000000000000000000110 B
1C
b00000000000000000000000000000001 D
b11111111111111111111111011011001 E
b00010 H
b11111111111111111111111011011010 J
b00010 K
b00010 M
b00110 N
b00010 P
b11111111111111111111111011011010 Q
b00000000000000000000000000000001 R
b11111111111111111111111011011001 S
1T
b00000000000000000000000000000110 V
b11111111111111111111111011011001 W
b11111111111111111111111011011001 X
1Y
#125000000
0!
0#
05
09
0T
#130000000
1!
1#
b0000001101 %
b00000000000000000000000000000000 &
b00000 )
b00000 *
b00000 +
b00000000000000000000000000000000 ,
b00000000000000000000000000000000 -
b00000 .
00
b00000000000000000000000000000000 1
b00000000000000000000000000000000 2
b00000000000000000000000000000000 4
15
b0000001101 7
b0000001101 8
19
b00000000000000000000000000000000 :
b00000000000000000000000000000000 ;
b00000 =
b00000 >
b00000 @
b00000000000000000000000000000000 B
0C
b00000000000000000000000000000000 D
b00000000000000000000000000000000 E
b00000 H
b00000000000000000000000000000000 J
b00000 K
b00000 M
b00000 N
b00000 P
b00000000000000000000000000000000 Q
b00000000000000000000000000000000 R
b00000000000000000000000000000000 S
1T
b00000000000000000000000000000000 V
b00000000000000000000000000000000 W
b00000000000000000000000000000000 X
0Y
#135000000
0!
0#
05
09
0T
#140000000
1!
1#
b0000001110 %
15
b0000001110 7
b0000001110 8
19
1T
#145000000
0!
0#
05
09
0T
#150000000
1!
1#
b0000001111 %
15
b0000001111 7
b0000001111 8
19
1T
#155000000
0!
0#
05
09
0T
#160000000
1!
1#
b0000010000 %
15
b0000010000 7
b0000010000 8
19
1T
#165000000
0!
0#
05
09
0T
#170000000
1!
1#
b0000010001 %
15
b0000010001 7
b0000010001 8
19
1T
#175000000
0!
0#
05
09
0T
#180000000
1!
1#
b0000010010 %
15
b0000010010 7
b0000010010 8
19
1T
#185000000
0!
0#
05
09
0T
#190000000
1!
1#
b0000010011 %
15
b0000010011 7
b0000010011 8
19
1T
#195000000
0!
0#
05
09
0T
#200000000
1!
1#
b0000010100 %
15
b0000010100 7
b0000010100 8
19
1T
#205000000
0!
0#
05
09
0T
#210000000
1!
1#
b0000010101 %
15
b0000010101 7
b0000010101 8
19
1T
#215000000
0!
0#
05
09
0T
#220000000
1!
1#
b0000010110 %
15
b0000010110 7
b0000010110 8
19
1T
#225000000
0!
0#
05
09
0T
#230000000
1!
1#
b0000010111 %
15
b0000010111 7
b0000010111 8
19
1T
#235000000
0!
0#
05
09
0T
#240000000
1!
1#
b0000011000 %
15
b0000011000 7
b0000011000 8
19
1T
#245000000
0!
0#
05
09
0T
#250000000
1!
1#
b0000011001 %
15
b0000011001 7
b0000011001 8
19
1T
#255000000
0!
0#
05
09
0T
#260000000
1!
1#
b0000011010 %
15
b0000011010 7
b0000011010 8
19
1T
#265000000
0!
0#
05
09
0T
#270000000
1!
1#
b0000011011 %
15
b0000011011 7
b0000011011 8
19
1T
#275000000
0!
0#
05
09
0T
#280000000
1!
1#
b0000011100 %
15
b0000011100 7
b0000011100 8
19
1T
#285000000
0!
0#
05
09
0T
#290000000
1!
1#
b0000011101 %
15
b0000011101 7
b0000011101 8
19
1T
#295000000
0!
0#
05
09
0T
#300000000
1!
1#
b0000011110 %
15
b0000011110 7
b0000011110 8
19
1T
#305000000
0!
0#
05
09
0T
#310000000
1!
1#
b0000011111 %
15
b0000011111 7
b0000011111 8
19
1T
#315000000
0!
0#
05
09
0T
#320000000
1!
1#
b0000100000 %
15
b0000100000 7
b0000100000 8
19
1T
#325000000
0!
0#
05
09
0T
#330000000
1!
1#
b0000100001 %
15
b0000100001 7
b0000100001 8
19
1T
#335000000
0!
0#
05
09
0T
#340000000
1!
1#
b0000100010 %
15
b0000100010 7
b0000100010 8
19
1T
#345000000
0!
0#
05
09
0T
#350000000
1!
1#
b0000100011 %
15
b0000100011 7
b0000100011 8
19
1T
#355000000
0!
0#
05
09
0T
#360000000
1!
1#
b0000100100 %
15
b0000100100 7
b0000100100 8
19
1T
#365000000
0!
0#
05
09
0T
#370000000
1!
1#
b0000100101 %
15
b0000100101 7
b0000100101 8
19
1T
#375000000
0!
0#
05
09
0T
#380000000
1!
1#
b0000100110 %
15
b0000100110 7
b0000100110 8
19
1T
#385000000
0!
0#
05
09
0T
#390000000
1!
1#
b0000100111 %
15
b0000100111 7
b0000100111 8
19
1T
#395000000
0!
0#
05
09
0T
#400000000
1!
1#
b0000101000 %
15
b0000101000 7
b0000101000 8
19
1T
#405000000
0!
0#
05
09
0T
#410000000
1!
1#
b0000101001 %
15
b0000101001 7
b0000101001 8
19
1T
#415000000
0!
0#
05
09
0T
#420000000
1!
1#
b0000101010 %
15
b0000101010 7
b0000101010 8
19
1T
#425000000
0!
0#
05
09
0T
#430000000
1!
1#
b0000101011 %
15
b0000101011 7
b0000101011 8
19
1T
#435000000
0!
0#
05
09
0T
#440000000
1!
1#
b0000101100 %
15
b0000101100 7
b0000101100 8
19
1T
#445000000
0!
0#
05
09
0T
#450000000
1!
1#
b0000101101 %
15
b0000101101 7
b0000101101 8
19
1T
#455000000
0!
0#
05
09
0T
#460000000
1!
1#
b0000101110 %
15
b0000101110 7
b0000101110 8
19
1T
#465000000
0!
0#
05
09
0T
#470000000
1!
1#
b0000101111 %
15
b0000101111 7
b0000101111 8
19
1T
#475000000
0!
0#
05
09
0T
#480000000
1!
1#
b0000110000 %
15
b0000110000 7
b0000110000 8
19
1T
#485000000
0!
0#
05
09
0T
#490000000
1!
1#
b0000110001 %
15
b0000110001 7
b0000110001 8
19
1T
#495000000
0!
0#
05
09
0T
#500000000
1!
1#
b0000110010 %
15
b0000110010 7
b0000110010 8
19
1T
#505000000
0!
0#
05
09
0T
#510000000
1!
1#
b0000110011 %
15
b0000110011 7
b0000110011 8
19
1T
#515000000
0!
0#
05
09
0T
#520000000
1!
1#
b0000110100 %
15
b0000110100 7
b0000110100 8
19
1T
#525000000
0!
0#
05
09
0T
#530000000
1!
1#
b0000110101 %
15
b0000110101 7
b0000110101 8
19
1T
#535000000
0!
0#
05
09
0T
#540000000
1!
1#
b0000110110 %
15
b0000110110 7
b0000110110 8
19
1T
#545000000
0!
0#
05
09
0T
#550000000
1!
1#
b0000110111 %
15
b0000110111 7
b0000110111 8
19
1T
#555000000
0!
0#
05
09
0T
#560000000
1!
1#
b0000111000 %
15
b0000111000 7
b0000111000 8
19
1T
#565000000
0!
0#
05
09
0T
#570000000
1!
1#
b0000111001 %
15
b0000111001 7
b0000111001 8
19
1T
#575000000
0!
0#
05
09
0T
#580000000
1!
1#
b0000111010 %
15
b0000111010 7
b0000111010 8
19
1T
#585000000
0!
0#
05
09
0T
#590000000
1!
1#
b0000111011 %
15
b0000111011 7
b0000111011 8
19
1T
#595000000
0!
0#
05
09
0T
#600000000
1!
1#
b0000111100 %
15
b0000111100 7
b0000111100 8
19
1T
#605000000
0!
0#
05
09
0T
#610000000
1!
1#
b0000111101 %
15
b0000111101 7
b0000111101 8
19
1T
#615000000
0!
0#
05
09
0T
#620000000
1!
1#
b0000111110 %
15
b0000111110 7
b0000111110 8
19
1T
#625000000
0!
0#
05
09
0T
#630000000
1!
1#
b0000111111 %
15
b0000111111 7
b0000111111 8
19
1T
#635000000
0!
0#
05
09
0T
#640000000
1!
1#
b0001000000 %
15
b0001000000 7
b0001000000 8
19
1T
#645000000
0!
0#
05
09
0T
#650000000
1!
1#
b0001000001 %
15
b0001000001 7
b0001000001 8
19
1T
#655000000
0!
0#
05
09
0T
#660000000
1!
1#
b0001000010 %
15
b0001000010 7
b0001000010 8
19
1T
#665000000
0!
0#
05
09
0T
#670000000
1!
1#
b0001000011 %
15
b0001000011 7
b0001000011 8
19
1T
#675000000
0!
0#
05
09
0T
#680000000
1!
1#
b0001000100 %
15
b0001000100 7
b0001000100 8
19
1T
#685000000
0!
0#
05
09
0T
#690000000
1!
1#
b0001000101 %
15
b0001000101 7
b0001000101 8
19
1T
#695000000
0!
0#
05
09
0T
#700000000
1!
1#
b0001000110 %
15
b0001000110 7
b0001000110 8
19
1T
#705000000
0!
0#
05
09
0T
#710000000
1!
1#
b0001000111 %
15
b0001000111 7
b0001000111 8
19
1T
#715000000
0!
0#
05
09
0T
#720000000
1!
1#
b0001001000 %
15
b0001001000 7
b0001001000 8
19
1T
#725000000
0!
0#
05
09
0T
#730000000
1!
1#
b0001001001 %
15
b0001001001 7
b0001001001 8
19
1T
#735000000
0!
0#
05
09
0T
#740000000
1!
1#
b0001001010 %
15
b0001001010 7
b0001001010 8
19
1T
#745000000
0!
0#
05
09
0T
#750000000
1!
1#
b0001001011 %
15
b0001001011 7
b0001001011 8
19
1T
#755000000
0!
0#
05
09
0T
#760000000
1!
1#
b0001001100 %
15
b0001001100 7
b0001001100 8
19
1T
#765000000
0!
0#
05
09
0T
#770000000
1!
1#
b0001001101 %
15
b0001001101 7
b0001001101 8
19
1T
#775000000
0!
0#
05
09
0T
#780000000
1!
1#
b0001001110 %
15
b0001001110 7
b0001001110 8
19
1T
#785000000
0!
0#
05
09
0T
#790000000
1!
1#
b0001001111 %
15
b0001001111 7
b0001001111 8
19
1T
#795000000
0!
0#
05
09
0T
#800000000
1!
1#
b0001010000 %
15
b0001010000 7
b0001010000 8
19
1T
#805000000
0!
0#
05
09
0T
#810000000
1!
1#
b0001010001 %
15
b0001010001 7
b0001010001 8
19
1T
#815000000
0!
0#
05
09
0T
#820000000
1!
1#
b0001010010 %
15
b0001010010 7
b0001010010 8
19
1T
#825000000
0!
0#
05
09
0T
#830000000
1!
1#
b0001010011 %
15
b0001010011 7
b0001010011 8
19
1T
#835000000
0!
0#
05
09
0T
#840000000
1!
1#
b0001010100 %
15
b0001010100 7
b0001010100 8
19
1T
#845000000
0!
0#
05
09
0T
#850000000
1!
1#
b0001010101 %
15
b0001010101 7
b0001010101 8
19
1T
#855000000
0!
0#
05
09
0T
#860000000
1!
1#
b0001010110 %
15
b0001010110 7
b0001010110 8
19
1T
#865000000
0!
0#
05
09
0T
#870000000
1!
1#
b0001010111 %
15
b0001010111 7
b0001010111 8
19
1T
#875000000
0!
0#
05
09
0T
#880000000
1!
1#
b0001011000 %
15
b0001011000 7
b0001011000 8
19
1T
#885000000
0!
0#
05
09
0T
#890000000
1!
1#
b0001011001 %
15
b0001011001 7
b0001011001 8
19
1T
#895000000
0!
0#
05
09
0T
#900000000
1!
1#
b0001011010 %
15
b0001011010 7
b0001011010 8
19
1T
#905000000
0!
0#
05
09
0T
#910000000
1!
1#
b0001011011 %
15
b0001011011 7
b0001011011 8
19
1T
#915000000
0!
0#
05
09
0T
#920000000
1!
1#
b0001011100 %
15
b0001011100 7
b0001011100 8
19
1T
#925000000
0!
0#
05
09
0T
#930000000
1!
1#
b0001011101 %
15
b0001011101 7
b0001011101 8
19
1T
#935000000
0!
0#
05
09
0T
#940000000
1!
1#
b0001011110 %
15
b0001011110 7
b0001011110 8
19
1T
#945000000
0!
0#
05
09
0T
#950000000
1!
1#
b0001011111 %
15
b0001011111 7
b0001011111 8
19
1T
#955000000
0!
0#
05
09
0T
#960000000
1!
1#
b0001100000 %
15
b0001100000 7
b0001100000 8
19
1T
#965000000
0!
0#
05
09
0T
#970000000
1!
1#
b0001100001 %
15
b0001100001 7
b0001100001 8
19
1T
#975000000
0!
0#
05
09
0T
#980000000
1!
1#
b0001100010 %
15
b0001100010 7
b0001100010 8
19
1T
#985000000
0!
0#
05
09
0T
#990000000
1!
1#
b0001100011 %
15
b0001100011 7
b0001100011 8
19
1T
#995000000
0!
0#
05
09
0T
#1000000000
1!
1#
b0001100100 %
15
b0001100100 7
b0001100100 8
19
1T
#1005000000
0!
0#
05
09
0T
#1010000000
1!
1#
b0001100101 %
15
b0001100101 7
b0001100101 8
19
1T
#1015000000
0!
0#
05
09
0T
#1020000000
1!
1#
b0001100110 %
15
b0001100110 7
b0001100110 8
19
1T
#1025000000
0!
0#
05
09
0T
#1030000000
1!
1#
b0001100111 %
15
b0001100111 7
b0001100111 8
19
1T
#1035000000
0!
0#
05
09
0T
#1040000000
1!
1#
b0001101000 %
15
b0001101000 7
b0001101000 8
19
1T
#1045000000
0!
0#
05
09
0T
#1050000000
1!
1#
b0001101001 %
15
b0001101001 7
b0001101001 8
19
1T
#1055000000
0!
0#
05
09
0T
#1060000000
1!
1#
b0001101010 %
15
b0001101010 7
b0001101010 8
19
1T
#1065000000
0!
0#
05
09
0T
#1070000000
1!
1#
b0001101011 %
15
b0001101011 7
b0001101011 8
19
1T
#1075000000
0!
0#
05
09
0T
#1080000000
1!
1#
b0001101100 %
15
b0001101100 7
b0001101100 8
19
1T
#1085000000
0!
0#
05
09
0T
#1090000000
1!
1#
b0001101101 %
15
b0001101101 7
b0001101101 8
19
1T
#1095000000
0!
0#
05
09
0T
#1100000000
1!
1#
b0001101110 %
15
b0001101110 7
b0001101110 8
19
1T
#1105000000
0!
0#
05
09
0T
#1110000000
1!
1#
b0001101111 %
15
b0001101111 7
b0001101111 8
19
1T
#1115000000
0!
0#
05
09
0T
#1120000000
1!
1#
b0001110000 %
15
b0001110000 7
b0001110000 8
19
1T
#1125000000
0!
0#
05
09
0T
#1130000000
1!
1#
b0001110001 %
15
b0001110001 7
b0001110001 8
19
1T
#1135000000
0!
0#
05
09
0T
#1140000000
1!
1#
b0001110010 %
15
b0001110010 7
b0001110010 8
19
1T
#1145000000
0!
0#
05
09
0T
#1150000000
1!
1#
b0001110011 %
15
b0001110011 7
b0001110011 8
19
1T
#1155000000
0!
0#
05
09
0T
#1160000000
1!
1#
b0001110100 %
15
b0001110100 7
b0001110100 8
19
1T
#1165000000
0!
0#
05
09
0T
#1170000000
1!
1#
b0001110101 %
15
b0001110101 7
b0001110101 8
19
1T
#1175000000
0!
0#
05
09
0T
#1180000000
1!
1#
b0001110110 %
15
b0001110110 7
b0001110110 8
19
1T
#1185000000
0!
0#
05
09
0T
#1190000000
1!
1#
b0001110111 %
15
b0001110111 7
b0001110111 8
19
1T
#1195000000
0!
0#
05
09
0T
#1200000000
1!
1#
b0001111000 %
15
b0001111000 7
b0001111000 8
19
1T
#1205000000
0!
0#
05
09
0T
#1210000000
1!
1#
b0001111001 %
15
b0001111001 7
b0001111001 8
19
1T
#1215000000
0!
0#
05
09
0T
#1220000000
1!
1#
b0001111010 %
15
b0001111010 7
b0001111010 8
19
1T
#1225000000
0!
0#
05
09
0T
#1230000000
1!
1#
b0001111011 %
15
b0001111011 7
b0001111011 8
19
1T
#1235000000
0!
0#
05
09
0T
#1240000000
1!
1#
b0001111100 %
15
b0001111100 7
b0001111100 8
19
1T
#1245000000
0!
0#
05
09
0T
#1250000000
1!
1#
b0001111101 %
15
b0001111101 7
b0001111101 8
19
1T
#1255000000
0!
0#
05
09
0T
#1260000000
1!
1#
b0001111110 %
15
b0001111110 7
b0001111110 8
19
1T
#1265000000
0!
0#
05
09
0T
#1270000000
1!
1#
b0001111111 %
15
b0001111111 7
b0001111111 8
19
1T
#1275000000
0!
0#
05
09
0T
#1280000000
1!
1#
b0010000000 %
15
b0010000000 7
b0010000000 8
19
1T
#1285000000
0!
0#
05
09
0T
#1290000000
1!
1#
b0010000001 %
15
b0010000001 7
b0010000001 8
19
1T
#1295000000
0!
0#
05
09
0T
#1300000000
1!
1#
b0010000010 %
15
b0010000010 7
b0010000010 8
19
1T
#1305000000
0!
0#
05
09
0T
#1310000000
1!
1#
b0010000011 %
15
b0010000011 7
b0010000011 8
19
1T
#1315000000
0!
0#
05
09
0T
#1320000000
1!
1#
b0010000100 %
15
b0010000100 7
b0010000100 8
19
1T
#1325000000
0!
0#
05
09
0T
#1330000000
1!
1#
b0010000101 %
15
b0010000101 7
b0010000101 8
19
1T
#1335000000
0!
0#
05
09
0T
#1340000000
1!
1#
b0010000110 %
15
b0010000110 7
b0010000110 8
19
1T
#1345000000
0!
0#
05
09
0T
#1350000000
1!
1#
b0010000111 %
15
b0010000111 7
b0010000111 8
19
1T
#1355000000
0!
0#
05
09
0T
#1360000000
1!
1#
b0010001000 %
15
b0010001000 7
b0010001000 8
19
1T
#1365000000
0!
0#
05
09
0T
#1370000000
1!
1#
b0010001001 %
15
b0010001001 7
b0010001001 8
19
1T
#1375000000
0!
0#
05
09
0T
#1380000000
1!
1#
b0010001010 %
15
b0010001010 7
b0010001010 8
19
1T
#1385000000
0!
0#
05
09
0T
#1390000000
1!
1#
b0010001011 %
15
b0010001011 7
b0010001011 8
19
1T
#1395000000
0!
0#
05
09
0T
#1400000000
1!
1#
b0010001100 %
15
b0010001100 7
b0010001100 8
19
1T
#1405000000
0!
0#
05
09
0T
#1410000000
1!
1#
b0010001101 %
15
b0010001101 7
b0010001101 8
19
1T
#1415000000
0!
0#
05
09
0T
#1420000000
1!
1#
b0010001110 %
15
b0010001110 7
b0010001110 8
19
1T
#1425000000
0!
0#
05
09
0T
#1430000000
1!
1#
b0010001111 %
15
b0010001111 7
b0010001111 8
19
1T
#1435000000
0!
0#
05
09
0T
#1440000000
1!
1#
b0010010000 %
15
b0010010000 7
b0010010000 8
19
1T
#1445000000
0!
0#
05
09
0T
#1450000000
1!
1#
b0010010001 %
15
b0010010001 7
b0010010001 8
19
1T
#1455000000
0!
0#
05
09
0T
